<svg width="1382" height="677" viewBox="0 0 1382 677" fill="none" xmlns="http://www.w3.org/2000/svg">
<path d="M1236.54 1C1240.16 3.52118 1243.52 5.5957 1245.63 6.51215C1250.67 8.77496 1253.45 11.3859 1254.67 14.6931C1255.54 17.4781 1257.63 19.741 1259.19 19.741C1260.58 19.741 1262.84 21.6556 1263.89 24.0925C1264.93 26.5294 1266.84 28.4441 1268.23 28.4441C1269.62 28.4441 1273.1 29.6625 1275.88 31.2291C1279.71 33.1438 1281.1 34.8845 1280.41 37.1473C1279.71 39.5842 1280.75 40.6285 1284.58 41.4988C1288.58 42.3691 1289.45 43.4136 1288.75 45.8505C1288.06 48.1133 1289.27 50.028 1292.93 52.6389C1299.71 57.5127 1301.1 57.1646 1297.62 51.9426C1295.01 48.1132 1295.01 47.5911 1297.45 47.5911C1301.27 47.5911 1308.92 56.6424 1307.71 59.6014C1307.36 60.994 1307.71 66.2158 1308.75 71.2637C1310.14 77.8781 1312.4 82.2297 1316.57 86.4072C1322.31 92.1512 1326.83 93.3697 1321.96 87.7997C1320.75 86.2331 1319.36 82.2297 1318.83 78.7484C1318.31 73.7006 1318.83 72.134 1321.96 70.7415C1326.66 68.4787 1330.14 70.3934 1328.57 74.2228C1328.05 75.7894 1328.22 77.1818 1329.27 77.1818C1330.31 77.1818 1331.35 76.3115 1331.7 75.4412C1332.05 74.2228 1335.88 74.0487 1342.31 74.7449C1351.87 75.9634 1352.57 76.3115 1360.05 85.7109C1364.39 91.1069 1367.87 96.5029 1367.87 97.5472C1367.87 98.7657 1370.31 100.854 1373.44 102.073L1379 104.336L1373.44 106.599C1368.91 108.513 1367.87 109.906 1367.87 113.909C1367.87 119.653 1366.65 120.175 1361.61 116.346C1356.74 112.691 1355.52 113.213 1357.44 118.261C1358.69 121.403 1359.3 122.878 1358.81 123.57C1358.35 124.22 1356.91 124.179 1354.13 124.179C1350.48 124.179 1348.57 125.223 1347.87 127.66C1347.18 129.749 1345.27 131.141 1343.18 131.141C1339.53 131.141 1339.53 131.141 1342.83 134.797C1345.96 138.278 1345.96 138.452 1341.79 141.759C1339.35 143.5 1336.92 145.067 1336.22 145.067C1334.48 145.067 1336.57 150.462 1339.7 154.118C1342.14 156.903 1341.96 157.251 1338.66 157.251C1336.4 157.251 1334.83 158.295 1334.83 159.862C1334.83 161.254 1333.61 162.473 1332.22 162.473C1330.66 162.473 1329.62 160.906 1329.62 158.469C1329.62 156.381 1329.09 155.51 1328.22 156.555C1326.31 159.688 1320.57 158.643 1319.53 155.162C1318.49 151.159 1309.97 146.459 1306.49 147.852C1301.79 149.592 1294.84 139.845 1294.84 131.838C1294.84 122.264 1290.66 120.175 1273.1 120.872L1259.71 121.568L1256.41 113.387C1253.8 106.773 1253.63 104.858 1255.54 103.814C1256.76 103.117 1258.32 100.854 1259.02 99.1138C1260.23 95.8066 1260.06 95.8066 1256.76 98.7657C1253.45 101.725 1253.1 101.725 1252.06 99.1138C1250.67 95.2844 1248.41 95.6326 1247.37 99.8101C1246.84 101.899 1244.93 103.291 1243.02 103.291C1239.89 103.291 1239.72 103.988 1240.76 107.991C1241.63 110.776 1243.71 115.302 1245.28 118.087C1248.41 123.483 1248.41 123.483 1243.54 130.793C1240.76 134.971 1234.32 141.759 1228.93 145.937C1220.41 152.725 1219.02 153.422 1216.59 151.159C1215.02 149.766 1211.54 148.548 1209.11 148.548C1205.11 148.548 1204.42 149.244 1204.42 153.77C1204.42 158.992 1211.2 165.606 1214.68 163.517C1216.59 162.299 1218.85 167.347 1217.28 169.609C1216.76 170.48 1217.63 171.698 1219.02 172.22C1220.76 172.917 1221.8 175.354 1221.8 178.835C1221.8 181.794 1223.72 187.886 1226.15 192.586C1229.8 199.374 1230.15 200.767 1227.89 200.767C1225.46 200.767 1225.63 201.463 1228.59 205.292C1230.5 207.903 1231.72 210.688 1231.02 211.907C1230.73 212.339 1230.3 213.041 1229.78 213.862C1229.06 215.025 1228.18 216.427 1227.37 217.651L1224.93 221.48L1216.24 217.129C1211.55 214.692 1206.68 213.125 1205.63 213.473C1204.59 213.822 1202.33 212.603 1200.94 210.688C1198.33 207.381 1198.16 207.555 1198.33 212.081C1198.33 216.432 1197.11 217.303 1184.94 222.177C1177.46 224.962 1171.38 228.443 1171.38 229.661C1171.38 232.968 1158.51 240.801 1153.29 240.801C1150.51 240.801 1148.6 242.02 1147.9 244.283C1147.21 246.197 1144.6 249.156 1142.16 250.723C1136.43 254.378 1131.38 259.252 1131.38 261.341C1131.38 262.037 1126.34 265.692 1120.08 269.348C1111.73 274.221 1108.78 277.006 1108.78 279.617C1108.78 287.798 1106.17 288.321 1099.73 281.184C1086.69 266.737 1065.65 268.303 1055.91 284.665L1051.39 292.15V283.795C1051.39 278.051 1050.7 275.614 1048.96 275.614C1045.48 275.614 1035.74 285.188 1035.74 288.495C1035.74 291.802 1033.83 292.15 1030.87 289.191C1029.48 287.798 1028.27 287.798 1026.35 289.365C1024.96 290.583 1022.88 291.106 1022.01 290.409C1018.01 288.147 1013.49 293.02 1012.44 300.853C1011.75 305.205 1009.83 310.078 1008.1 311.819C1003.23 316.519 994.01 334.97 994.01 340.017C994.01 346.284 995.401 347.328 999.922 344.369C1002.88 342.454 1004.1 342.454 1006.7 344.195C1009.66 346.458 1009.49 346.98 1006.18 354.987C1002.36 363.69 1002.7 371.871 1006.88 374.308C1011.75 377.267 1011.23 390.496 1006.36 390.496C1003.75 390.496 1002.7 385.1 1004.44 381.619C1006.53 377.789 1005.66 377.441 1000.79 380.226C998.879 381.27 997.662 383.011 998.184 384.404C998.531 385.622 997.14 388.407 994.88 390.496C989.141 395.892 988.272 401.462 991.402 411.731C993.836 419.912 993.836 420.957 991.054 423.916C988.968 426.179 986.707 426.875 983.577 426.179C980.099 425.482 977.491 426.527 971.753 431.401C968.057 434.66 966.231 436.269 965.465 438.283C964.716 440.248 964.977 442.597 965.493 447.24C966.536 455.247 966.188 456.64 963.928 456.64C962.363 456.64 958.015 457.858 954.19 459.425C947.756 462.036 947.06 462.732 945.322 471.957C944.278 477.527 942.887 483.271 942.192 484.838C940.453 488.841 924.281 505.726 923.238 504.681C922.716 504.159 918.89 485.534 914.717 463.254C906.718 421.131 905.675 405.813 908.979 385.274C910.544 375.178 911.413 373.263 917.847 367.693C924.281 362.123 924.976 360.731 924.976 353.42C924.976 346.11 925.498 345.239 928.976 345.239C936.279 345.239 944.452 338.451 955.755 323.133C962.015 314.778 972.622 301.724 979.578 294.413C986.533 287.102 992.271 279.792 992.271 278.399C992.271 276.832 997.314 273.177 1004.62 269.522C1014.53 264.474 1016.62 262.733 1015.75 259.948C1015.22 258.208 1015.57 256.293 1016.62 255.597C1017.49 255.075 1018.35 252.638 1018.35 250.375C1018.35 248.112 1019.05 244.457 1019.92 242.194C1020.96 239.931 1022.01 235.231 1022.7 231.75C1023.4 226.702 1024.96 224.439 1028.79 222.525C1035.05 219.217 1035.4 216.955 1029.83 214.518C1023.75 211.733 1016.62 214.692 1011.75 221.828C1008.27 226.702 1007.75 229.139 1008.62 235.928C1009.14 240.801 1008.79 244.283 1007.92 244.283C1006.88 244.283 1006.18 243.412 1006.18 242.542C1006.18 237.668 999.053 242.194 984.968 255.945L984.79 256.117C969.836 270.57 969.323 271.066 970.535 265.344C971.579 260.47 971.405 259.6 969.144 260.47C965.145 262.037 964.623 252.812 968.275 245.849C972.622 237.668 972.448 234.013 967.927 238.19C964.797 241.149 964.275 241.149 958.537 237.668L952.625 234.187L940.279 237.842L927.759 241.324L919.934 254.03C915.587 260.993 908.631 269.522 904.284 273.003C895.937 279.966 888.982 291.106 888.634 298.59C888.286 302.42 889.155 303.464 893.329 304.334C898.371 305.553 901.328 308.164 899.415 309.904C898.893 310.601 893.85 310.775 888.286 310.601C880.461 310.427 877.157 311.123 873.853 313.734C871.245 315.823 868.637 316.519 867.245 315.823C866.028 314.952 862.029 315.126 858.203 315.997C846.553 319.13 841.162 314.082 852.291 310.427C859.768 307.99 859.942 306.771 853.16 302.942C849.161 300.505 847.248 300.331 844.64 301.723C842.032 303.116 839.075 302.594 832.294 299.983C821.513 295.631 815.774 295.457 817.339 299.113C817.861 300.679 817.165 302.246 815.6 302.942C814.209 303.464 813.34 305.031 813.862 306.249C814.905 309.034 811.253 309.556 808.645 306.945C807.428 305.727 805.167 305.727 801.516 306.945C797.342 308.512 794.734 308.338 789.517 306.075C783.431 303.464 782.909 303.638 779.258 306.945C775.606 310.427 775.432 310.427 772.65 307.294C770.215 304.508 767.607 304.16 753.696 304.857C740.48 305.553 736.133 306.423 730.221 309.904C722.222 314.604 705.877 332.359 701.356 341.062C699.791 344.195 695.269 349.243 691.27 352.202C687.444 355.335 679.272 364.56 673.186 372.567C667.273 380.574 654.753 393.803 645.537 402.158C636.321 410.513 628.844 418.346 628.844 419.39C628.844 422.523 638.756 425.831 644.494 424.612L649.711 423.742V433.315C649.711 440.104 650.406 442.715 651.797 442.367C653.014 441.844 654.406 439.756 654.927 437.493C655.449 435.23 656.84 433.141 658.057 432.619C659.274 432.271 659.796 432.967 659.101 434.708C658.579 436.274 658.927 438.711 659.97 439.93C661.361 441.67 661.535 442.715 660.144 443.585C657.014 445.5 658.231 448.285 661.883 447.066C663.796 446.37 667.447 445.674 670.229 445.5C674.229 444.978 675.098 444.107 675.794 438.189C676.226 434.817 676.443 433.12 677.405 432.33C678.38 431.529 680.119 431.66 683.619 431.923C688.314 432.271 691.444 433.663 693.183 436.1C697.182 441.67 704.138 448.633 708.659 451.94C712.137 454.203 712.658 455.421 711.267 458.555C710.224 460.817 710.05 466.387 710.746 471.957C711.789 479.616 711.441 482.923 709.007 487.797C702.399 500.852 699.791 511.818 701.703 518.432C702.921 522.784 702.573 529.398 700.834 541.409C698.573 556.378 697.704 558.815 692.14 564.907C684.836 573.088 674.75 588.58 671.099 597.283C667.447 605.812 628.496 655.246 619.454 662.557C615.455 665.864 610.064 668.997 607.456 669.693C600.5 671.434 590.241 669.171 589.371 665.69C589.023 663.949 587.111 661.86 585.372 660.642C582.416 658.727 581.546 659.424 578.416 665.516C576.156 669.867 573.721 672.478 571.635 672.478C569.722 672.478 567.809 673.523 567.461 674.567C566.94 675.785 566.418 675.089 566.418 672.826C566.244 670.564 568.157 666.212 570.591 663.079C575.46 656.639 576.33 646.195 572.852 638.536C571.113 634.532 571.287 633.488 576.33 628.44C581.546 623.218 582.068 623.044 589.197 624.959C593.197 626.003 597.196 626.526 597.892 626.003C600.674 624.437 609.369 605.29 613.02 593.105C615.107 586.143 617.889 579.703 619.28 578.484C621.019 576.918 621.888 573.61 621.714 567.866C621.541 563.167 621.193 559.337 620.845 559.337C620.497 559.337 613.02 562.47 604.152 566.474C579.633 577.266 568.157 575.699 567.983 561.6C567.983 558.467 567.114 554.289 566.07 552.026C563.636 546.456 548.681 538.972 534.944 536.187L523.641 533.924L520.685 520.173C519.12 512.514 515.816 501.548 513.382 495.804C510.947 490.06 508.861 483.794 508.861 481.879C508.861 479.964 506.252 474.742 503.296 470.217C498.427 463.08 496.515 461.862 490.081 460.817C486.081 460.295 479.821 457.684 476.344 455.421L469.91 451.07L451.651 453.855C433.567 456.64 433.045 456.814 426.785 463.776C419.656 471.435 419.656 474.046 426.438 474.046C432.871 474.046 432.176 482.749 425.22 488.841C421.221 492.149 418.265 497.545 414.265 509.381C408.875 524.524 408.353 525.395 400.18 530.269L391.834 535.142L383.835 532.183C379.488 530.443 371.489 528.528 366.272 527.832C361.055 527.309 354.274 525.743 351.318 524.524C346.101 522.262 345.231 522.61 334.798 529.05C328.712 532.88 317.583 537.753 310.106 540.016L309.921 540.066C296.711 543.673 296.127 543.833 281.414 541.06C270.633 538.972 265.069 536.883 261.243 533.75C254.635 528.18 222.64 512.34 218.119 512.34C216.38 512.34 210.989 514.429 206.12 516.866C198.643 520.521 196.383 521.043 192.209 519.477C182.819 516.169 177.777 510.773 175.864 502.244L174.125 494.063L155.867 486.927L137.608 479.616L131.522 484.49C119.698 493.889 118.654 495.804 120.741 503.985C121.958 508.859 122.132 511.992 120.915 513.384C119.872 514.603 119.35 517.736 119.698 520.521L120.219 525.395L78.8339 526.439L73.4433 521.217C68.5744 516.518 66.6616 515.995 51.5333 514.951C38.8395 514.081 33.275 514.429 27.5367 516.518C21.1265 518.842 10.3982 524.794 1 530.842V1H1089.68C1089.73 1.03857 1089.78 1.07727 1089.82 1.11615L1100.08 9.47119L1104.95 6.164C1106.84 4.77405 1109.2 2.74194 1111.08 1H1236.54Z" stroke="white" stroke-opacity="0.5" stroke-width="2"/>
</svg>
