<svg width="44" height="44" viewBox="0 0 44 44" fill="none" xmlns="http://www.w3.org/2000/svg">
<g opacity="0.7" clip-path="url(#clip0)">
<path d="M16.6897 23.3309H12.3276C12.3276 24.0137 12.9598 24.1844 13.2759 24.1844C13.2759 25.607 14.6035 26.5554 15.6466 26.5554H19.5345C19.5345 24.1275 17.6379 23.3941 16.6897 23.3309Z" fill="white"/>
<path d="M22 13.8468L23.1064 15.5855L24.8448 16.692L23.1064 17.7985L22 19.5372L20.8936 17.7985L19.1552 16.692L20.8936 15.5855L22 13.8468Z" fill="white"/>
<path d="M20.5776 34.3324C21.5259 34.3324 22 34.8066 22 34.8066C22 34.8066 22.4741 34.3324 23.4224 34.3324C24.0255 34.3324 24.4752 34.4091 25.0885 34.5138C25.4396 34.5737 25.8443 34.6427 26.3621 34.7118C24.9396 36.4189 24.0862 37.1776 23.4224 37.1776C23.4224 37.1776 22.5721 37.1302 22 37.1302C21.4279 37.1302 20.5776 37.1776 20.5776 37.1776C19.9138 37.1776 19.0604 36.4189 17.6379 34.7118C18.1557 34.6427 18.5604 34.5737 18.9115 34.5138C19.5248 34.4091 19.9745 34.3324 20.5776 34.3324Z" fill="white"/>
<path d="M0 22.0031C-6.59757e-08 22.7579 0.0388291 23.5107 0.115908 24.2587C0.506374 19.8642 6.7541 15.0992 12.5401 10.6865C16.7473 7.47783 20.7103 4.45536 22 1.89682C23.2896 4.45536 27.2527 7.47783 31.4599 10.6865C37.2459 15.0992 43.4936 19.8642 43.8841 24.2587C43.9612 23.5107 44 22.7579 44 22.0031C44 19.1136 43.431 16.2524 42.3254 13.5829C41.2198 10.9133 39.5992 8.48773 37.5564 6.44455C35.5135 4.40138 33.0882 2.78064 30.4191 1.67488C27.7499 0.569126 24.889 0 22 0C19.1109 0 16.2501 0.569126 13.5809 1.67488C10.9118 2.78064 8.48652 4.40138 6.44364 6.44455C4.40075 8.48773 2.78025 10.9133 1.67465 13.5829C0.569046 16.2524 2.52572e-07 19.1136 0 22.0031Z" fill="white"/>
<path d="M9.86205 27.8832C8.90101 34.0347 9.59933 38.4689 10.6702 40.864C9.1354 39.9418 7.71542 38.8336 6.44363 37.5616C4.93038 36.0481 3.64889 34.3248 2.63676 32.448C0.735101 23.7138 13.6183 12.7601 19.3495 7.88727C20.953 6.52389 21.9967 5.63654 22 5.40701C22.0033 5.63645 23.0462 6.52324 24.6488 7.88577L24.6505 7.88727C30.3817 12.7601 43.2649 23.7138 41.3632 32.448C40.3511 34.3248 39.0696 36.0481 37.5564 37.5616C36.2846 38.8336 34.8646 39.9418 33.3298 40.864C34.4007 38.4689 35.099 34.0347 34.138 27.8832C33.815 25.8164 33.0132 23.9303 31.9666 22.2118C30.9626 21.9672 29.6474 21.7459 28.2586 22.0031C26.9201 22.251 25.8926 22.6544 25.2168 22.983C24.8116 23.18 24.3534 22.8851 24.5411 22.4755C24.8974 21.6978 25.7325 20.717 27.6896 20.3908C28.992 20.1737 29.9494 20.1775 30.6354 20.2652C29.0935 18.228 27.3001 16.4576 25.7486 14.9258C23.654 12.858 22 11.2252 22 9.95829C22 11.2252 20.346 12.858 18.2514 14.9258C16.6999 16.4576 14.9065 18.228 13.3646 20.2652C14.0506 20.1775 15.008 20.1737 16.3104 20.3908C18.2675 20.717 19.1026 21.6978 19.4589 22.4755C19.6466 22.8851 19.1884 23.18 18.7833 22.983C18.1074 22.6544 17.0799 22.251 15.7414 22.0031C14.3526 21.7459 13.0374 21.9672 12.0334 22.2118C10.9868 23.9303 10.185 25.8164 9.86205 27.8832Z" fill="white"/>
<path d="M15.0453 42.8778C11.5705 39.7706 9.67309 29.3725 11.9483 25.7967C11.3793 31.8665 17.5431 41.1609 22 41.1609C26.4568 41.1609 32.6207 31.8665 32.0517 25.7967C34.3269 29.3725 32.4295 39.7706 28.9547 42.8778C24.465 44.3741 19.535 44.3741 15.0453 42.8778Z" fill="white"/>
<path d="M27.3103 23.3309H31.6724C31.6724 24.0137 31.0402 24.1844 30.7241 24.1844C30.7241 25.607 29.3965 26.5554 28.3534 26.5554H24.4655C24.4655 24.1275 26.3621 23.3941 27.3103 23.3309Z" fill="white"/>
<path d="M20.1034 31.013C20.7672 31.3923 21.1465 31.4872 22 31.4872C22.8534 31.4872 23.2328 31.3923 23.8966 31.013C24.5604 30.6336 24.9397 31.1078 23.8966 31.6769C23.5166 31.8841 23.2625 32.0662 23.0563 32.214C22.6963 32.4719 22.4823 32.6253 22 32.6253C21.5177 32.6253 21.3037 32.4719 20.9437 32.214C20.7375 32.0662 20.4834 31.8841 20.1034 31.6769C19.0603 31.1078 19.4396 30.6336 20.1034 31.013Z" fill="white"/>
</g>
<defs>
<clipPath id="clip0">
<rect width="44" height="44" fill="white"/>
</clipPath>
</defs>
</svg>
