<svg width="245" height="37" viewBox="0 0 245 37" fill="none" xmlns="http://www.w3.org/2000/svg">
<path d="M9.30777 7.63172H0.00012207V1.09448H26.5437V7.63172H17.1051V35.5353H9.30777V7.63172Z" fill="#2F3040" fill-opacity="0.6"/>
<path d="M53.8375 1.09448V35.5353H46.0402V1.09448H53.8375Z" fill="#2F3040" fill-opacity="0.6"/>
<path d="M74.9496 1.09448H96.0137V7.47344H82.7469V15.3697H95.1546V21.6876H82.7469V35.5353H74.9496V1.09448Z" fill="#2F3040" fill-opacity="0.6"/>
<path d="M116.242 1.09448H137.306V7.47344H124.039V15.3697H136.447V21.6876H124.039V35.5353H116.242V1.09448Z" fill="#2F3040" fill-opacity="0.6"/>
<path d="M182.936 17.9699C182.936 29.2698 176.105 36.0969 166.022 36.0969C155.796 36.0969 149.778 28.3709 149.778 18.5492C149.778 8.25344 156.41 0.532227 166.565 0.532227C177.151 0.532226 182.936 8.4414 182.936 17.9699ZM158.021 18.4016C158.021 25.1488 161.205 29.9054 166.408 29.9054C171.679 29.9054 174.693 24.932 174.693 18.2339C174.693 12.0257 171.753 6.72454 166.389 6.72454C161.108 6.72454 158.021 11.7036 158.021 18.4016Z" fill="#2F3040" fill-opacity="0.6"/>
<path d="M197.546 27.497C199.611 28.604 202.855 29.6603 206.19 29.6603C209.772 29.6603 211.671 28.1748 211.671 25.9092C211.671 23.7932 210.026 22.5476 205.897 21.094C200.143 19.0567 196.383 15.9258 196.383 10.8951C196.383 5.02281 201.32 0.558105 209.429 0.558105C213.361 0.558105 216.201 1.33788 218.235 2.29135L216.512 8.53608C215.144 7.88455 212.662 6.90095 209.313 6.90095C205.917 6.90095 204.296 8.47028 204.296 10.2319C204.296 12.4193 206.207 13.3866 210.681 15.0738C216.787 17.3532 219.614 20.5177 219.614 25.3862C219.614 31.1372 215.205 36.0719 205.711 36.0719C201.802 36.0719 197.891 35.0097 195.97 33.9311L197.546 27.497Z" fill="#2F3040" fill-opacity="0.6"/>
<path d="M245 1.09448V35.5353H237.203V1.09448H245Z" fill="#2F3040" fill-opacity="0.6"/>
</svg>
